{"logLevel":"debug","message":"multithreading is set to false"}
{"logLevel":"debug","message":"Using reflection to scan dependencies for gauge implementations..."}
log4j:WARN No appenders could be found for logger (io.grpc.netty.shaded.io.netty.util.internal.logging.InternalLoggerFactory).
log4j:WARN Please initialize the log4j system properly.
log4j:WARN See http://logging.apache.org/log4j/1.2/faq.html#noconfig for more info.
{"logLevel":"debug","message":"gauge-java took 1096milliseconds to load and scan. This should be less than 'runner_connection_timeout' config value."}
{"logLevel":"debug","message":"run 'gauge config runner_connection_timeout' and verify that it is < 1096"}
{"logLevel":"debug","message":"starting gRPC server..."}
{"logLevel":"debug","message":"started gRPC server on port 57160"}
{"logLevel":"info","message":"Listening on port:57160"}
{"logLevel":"debug","message":"Scanning packages for steps"}
{"logLevel":"debug","message":"Comparing 'StepImplementations.checkStep' and 'StepImplementations.checkStep'"}
{"logLevel":"debug","message":"Found {} kontrol et in current project scope."}
{"logLevel":"debug","message":"Comparing 'StepImplementations.mainPage' and 'StepImplementations.mainPage'"}
{"logLevel":"debug","message":"Found Yapikredi ana sayfasina git in current project scope."}
{"logLevel":"debug","message":"Comparing 'StepImplementations.fillInput' and 'StepImplementations.fillInput'"}
{"logLevel":"debug","message":"Found {} a {} gir in current project scope."}
{"logLevel":"debug","message":"Comparing 'StepImplementations.newTab' and 'StepImplementations.newTab'"}
{"logLevel":"debug","message":"Found Yeni pencereye gec in current project scope."}
{"logLevel":"debug","message":"Comparing 'StepImplementations.clickButton' and 'StepImplementations.clickButton'"}
{"logLevel":"debug","message":"Found {} butonuna tikla in current project scope."}
{"logLevel":"debug","message":"Comparing 'StepImplementations.waitSecond' and 'StepImplementations.waitSecond'"}
{"logLevel":"debug","message":"Found {} sn. bekle in current project scope."}
{"logLevel":"debug","message":"Scanning packages for hooks"}
{"logLevel":"debug","message":"Scanned steps (using static parsing + reflections): "}
{"logLevel":"debug","message":"\t{} a {} gir : public void fillInput(String input, String key)"}
{"logLevel":"debug","message":"\tYapikredi ana sayfasina git : public void mainPage()"}
{"logLevel":"debug","message":"\t{} sn. bekle : public void waitSecond(ınt key) throws InterruptedException"}
{"logLevel":"debug","message":"\t{} butonuna tikla : public void clickButton(String element)"}
{"logLevel":"debug","message":"\t{} kontrol et : public void checkStep(String element)"}
{"logLevel":"debug","message":"\tYeni pencereye gec : public void newTab()"}
Senaryo Basliyor
Starting ChromeDriver 87.0.4280.88 (89e2380a3e36c3464b5dd1302349b1382549290d-refs/branch-heads/4280@{#1761}) on port 26206
Only local connections are allowed.
Please see https://chromedriver.chromium.org/security-considerations for suggestions on keeping ChromeDriver safe.
ChromeDriver was started successfully.
[1612267608.227][WARNING]: This version of ChromeDriver has not been tested with Chrome version 88.
Şub 02, 2021 3:06:50 PM org.openqa.selenium.remote.ProtocolHandshake createSession
INFO: Detected dialect: W3C
{"logLevel":"debug","message":"Executing 'Yapikredi ana sayfasina git' using 'class StepImplementations.mainPage"}
{"logLevel":"debug","message":"Executing '{} sn. bekle' using 'class StepImplementations.waitSecond"}
2 sn. beklendi.
{"logLevel":"debug","message":"Executing '{} kontrol et' using 'class StepImplementations.checkStep"}
cerezKabul kontrol edildi.
{"logLevel":"debug","message":"Executing '{} butonuna tikla' using 'class StepImplementations.clickButton"}
cerezKabul butonuna tiklandi
{"logLevel":"debug","message":"Executing '{} sn. bekle' using 'class StepImplementations.waitSecond"}
2 sn. beklendi.
{"logLevel":"debug","message":"Executing '{} butonuna tikla' using 'class StepImplementations.clickButton"}
Senaryo Tamamlandi
